…
    Examples

if (require("Lahman")) {
batting_df <- dplyr::tbl_df(Batting)
person_df <- dplyr::tbl_df(Master)
uperson_df <- dplyr::tbl_df(Master[!duplicated(Master$playerID), ])

left_join_fk(batting_df, uperson_df)
left_join_fk(batting_df, person_df)
}
#> Loading required package: Lahman
#> Joining, by = "playerID"
#> Joining, by = "playerID"
#> # A tibble: 102,816 x 47
#>    playerID yearID stint teamID lgID      G    AB     R     H   X2B   X3B    HR
#>    <chr>     <int> <int> <fct>  <fct> <int> <int> <int> <int> <int> <int> <int>
#>  1 abercda~   1871     1 TRO    NA        1     4     0     0     0     0     0
#>  2 addybo01   1871     1 RC1    NA       25   118    30    32     6     0     0
#>  3 allisar~   1871     1 CL1    NA       29   137    28    40     4     5     0
#>  4 allisdo~   1871     1 WS3    NA       27   133    28    44    10     2     2
#>  5 ansonca~   1871     1 RC1    NA       25   120    29    39    11     3     0
#>  6 armstbo~   1871     1 FW1    NA       12    49     9    11     2     1     0
#>  7 barkeal~   1871     1 RC1    NA        1     4     0     1     0     0     0
#>  8 barnero~   1871     1 BS1    NA       31   157    66    63    10     9     0
#>  9 barrebi~   1871     1 FW1    NA        1     5     1     1     1     0     0
#> 10 barrofr~   1871     1 BS1    NA       18    86    13    13     2     1     0
#> # ... with 102,806 more rows, and 35 more variables: RBI <int>, SB <int>,
#> #   CS <int>, BB <int>, SO <int>, IBB <int>, HBP <int>, SH <int>, SF <int>,
#> #   GIDP <int>, birthYear <int>, birthMonth <int>, birthDay <int>,
#> #   birthCountry <chr>, birthState <chr>, birthCity <chr>, deathYear <int>,
#> #   deathMonth <int>, deathDay <int>, deathCountry <chr>, deathState <chr>,
#> #   deathCity <chr>, nameFirst <chr>, nameLast <chr>, nameGiven <chr>,
#> #   weight <int>, height <int>, bats <fct>, throws <fct>, debut <chr>,
#> #   finalGame <chr>, retroID <chr>, bbrefID <chr>, deathDate <date>,
#> #   birthDate <date>
…
